INDEX VERSION 1.130+C:\FSD63\module2\FOJ\workspace1\.metadata\.plugins\org.eclipse.jdt.core
4259073463.index
2885606711.index
2066830214.index
4138326577.index
1961815414.index
1946725198.index
4323805.index
3348520720.index
103378668.index
3040837599.index
2507423472.index
411227453.index
542153213.index
1956904976.index
674573568.index
4135958314.index
895354549.index
3644761064.index
2205283528.index
