<?xml version="1.0" encoding="UTF-8"?>
<session version="1.0">
<refactoring comment="Delete resource &apos;java&apos;" deleteContents="false" description="Delete resource &apos;java&apos;" element1="/java" flags="7" id="org.eclipse.ltk.core.refactoring.delete.resources" resources="1" stamp="1712310196621"/>
</session>